{
  "references": [
  ],
  "constraints": [
    "device-type:/device-type/nali/n100/v1:rev3",
    "device-type:/device-type/nali/n100/v2:rev3",
    "class://hub.cpflex.tech/classes/firmware/n100:0"
  ],
  "description": "STM firmware bootloader image"
}